{
  "project_info": {
    "project_number": "1050712222687",
    "firebase_url": "https://tracowss-default-rtdb.asia-southeast1.firebasedatabase.app",
    "project_id": "tracowss",
    "storage_bucket": "tracowss.appspot.com"
  },
  "client": [
    {
      "client_info": {
        "mobilesdk_app_id": "1:1050712222687:android:7b0a0772e67c0f1246726a",
        "android_client_info": {
          "package_name": "com.example.tracowss"
        }
      },
      "oauth_client": [
        {
          "client_id": "1050712222687-lir6fug9re81nugmulf0asthmpc7kbgg.apps.googleusercontent.com",
          "client_type": 1,
          "android_info": {
            "package_name": "com.example.tracowss",
            "certificate_hash": "91a1e0d7b607aa4152d992394c00fc42a894b136"
          }
        },
        {
          "client_id": "1050712222687-qjcpdtc2eoh6pb41s39efrdgep0vqdc0.apps.googleusercontent.com",
          "client_type": 3
        }
      ],
      "api_key": [
        {
          "current_key": "AIzaSyCaaFV3j5whj_zoeULKtKRhe67H6Hqt_Hw"
        }
      ],
      "services": {
        "appinvite_service": {
          "other_platform_oauth_client": [
            {
              "client_id": "1050712222687-qjcpdtc2eoh6pb41s39efrdgep0vqdc0.apps.googleusercontent.com",
              "client_type": 3
            }
          ]
        }
      }
    }
  ],
  "configuration_version": "1"
}